{
  "PLANT": "$PLANT$",
  "PLANT_CODE": "$PLANT_CODE$",
  "PURCHASE_GROUP_CODE": "$PURCHASE_GROUP_CODE$",
  "PURCHASE_GROUP_NAME": "$PURCHASE_GROUP_NAME$",
  "REQUESITION_DATE": "$REQUESITION_DATE$",
  "PR_RELEASE_DATE": "$PR_RELEASE_DATE$",
  "PR_CHANGE_DATE": "$PR_CHANGE_DATE$",
  "PR_NUMBER": "$PR_NUMBER$",
  "REQUISITIONER_NAME": "$REQUISITIONER_NAME$",
  "REQUISITIONER_EMAIL": "$REQUISITIONER_EMAIL$",
  "ITEM_OF_REQUESITION": "$ITEM_OF_REQUESITION$",
  "MATERIAL_GROUP_CODE": "$MATERIAL_GROUP_CODE$",
  "MATERIAL_GROUP_DESC": "$MATERIAL_GROUP_DESC$",
  "MATERIAL_CODE": "$MATERIAL_CODE$",
  "MATERIAL_TYPE": "$MATERIAL_TYPE$",
  "MATERIAL_HSN_CODE": "$MATERIAL_HSN_CODE$",
  "MATERIAL_DESCRIPTION": "$MATERIAL_DESCRIPTION$",
  "SHORT_TEXT": "$SHORT_TEXT$",
  "ITEM_TEXT": "$ITEM_TEXT$",
  "UOM": "$UOM$",
  "QTY_REQUIRED": "$QTY_REQUIRED$",
  "MATERIAL_DELIVERY_DATE": "$MATERIAL_DELIVERY_DATE$",
  "LEAD_TIME": "$LEAD_TIME$",
  "PR_TYPE": "$PR_TYPE$",
  "PR_TYPE_DESC": "$PR_TYPE_DESC$",
  "FILE_NAME": "$FILE_NAME$"
}